{
  "version": "1.3.0",
  "Service": {
    "Name": "WMS",
    "Title": "Acme Corp. Map Server",
    "Abstract": "Map Server maintained by Acme Corporation.  Contact: webmaster@wmt.acme.com.  High-quality maps showing roadrunner nests and possible ambush locations.",
    "KeywordList": [
      "bird",
      "roadrunner",
      "ambush"
    ],
    "OnlineResource": "http://hostname/",
    "ContactInformation": {
      "ContactPersonPrimary": {
        "ContactPerson": "Jeff Smith",
        "ContactOrganization": "NASA"
      },
      "ContactPosition": "Computer Scientist",
      "ContactAddress": {
        "AddressType": "postal",
        "Address": "NASA Goddard Space Flight Center",
        "City": "Greenbelt",
        "StateOrProvince": "MD",
        "PostCode": "20771",
        "Country": "USA"
      },
      "ContactVoiceTelephone": "+1 301 555-1212",
      "ContactElectronicMailAddress": "user@host.com"
    },
    "Fees": "none",
    "AccessConstraints": "none",
    "LayerLimit": 16,
    "MaxWidth": 2048,
    "MaxHeight": 2048
  },
  "Capability": {
    "Request": {
      "GetCapabilities": {
        "Format": [
          "text/xml"
        ],
        "DCPType": [
          {
            "HTTP": {
              "Get": {
                "OnlineResource": "http://hostname/path?"
              },
              "Post": {
                "OnlineResource": "http://hostname/path?"
              }
            }
          }
        ]
      },
      "GetMap": {
        "Format": [
          "image/gif",
          "image/png",
          "image/jpeg"
        ],
        "DCPType": [
          {
            "HTTP": {
              "Get": {
                "OnlineResource": "http://hostname/path?"
              }
            }
          }
        ]
      },
      "GetFeatureInfo": {
        "Format": [
          "text/xml",
          "text/plain",
          "text/html"
        ],
        "DCPType": [
          {
            "HTTP": {
              "Get": {
                "OnlineResource": "http://hostname/path?"
              }
            }
          }
        ]
      }
    },
    "Exception": [
      "XML",
      "INIMAGE",
      "BLANK"
    ],
    "Layer": {
      "Title": "Acme Corp. Map Server",
      "CRS": [
        "CRS:84"
      ],
      "AuthorityURL": [
        {
          "OnlineResource": "http://gcmd.gsfc.nasa.gov/difguide/whatisadif.html",
          "name": "DIF_ID"
        }
      ],
      "BoundingBox": [
        {
          "crs": "CRS:84",
          "extent": [
            -1,
            -1,
            1,
            1
          ],
          "res": [
            0,
            0
          ]
        }
      ],
      "Layer": [
        {
          "Name": "ROADS_RIVERS",
          "Title": "Roads and Rivers",
          "CRS": [
            "EPSG:26986",
            "CRS:84"
          ],
          "EX_GeographicBoundingBox": [
            -71.63,
            41.75,
            -70.78,
            42.9
          ],
          "BoundingBox": [
            {
              "crs": "CRS:84",
              "extent": [
                -71.63,
                41.75,
                -70.78,
                42.9
              ],
              "res": [
                0.01,
                0.01
              ]
            },
            {
              "crs": "EPSG:26986",
              "extent": [
                189000,
                834000,
                285000,
                962000
              ],
              "res": [
                1,
                1
              ]
            }
          ],
          "Attribution": {
            "Title": "State College University",
            "OnlineResource": "http://www.university.edu/",
            "LogoURL": {
              "Format": "image/gif",
              "OnlineResource": "http://www.university.edu/icons/logo.gif",
              "size": [
                100,
                100
              ]
            }
          },
          "Identifier": [
            "123456"
          ],
          "FeatureListURL": [
            {
              "Format": "XML",
              "OnlineResource": "http://www.university.edu/data/roads_rivers.gml"
            }
          ],
          "Style": [
            {
              "Name": "USGS",
              "Title": "USGS Topo Map Style",
              "Abstract": "Features are shown in a style like that used in USGS topographic maps.",
              "LegendURL": [
                {
                  "Format": "image/gif",
                  "OnlineResource": "http://www.university.edu/legends/usgs.gif",
                  "size": [
                    72,
                    72
                  ]
                }
              ],
              "StyleSheetURL": {
                "Format": "text/xsl",
                "OnlineResource": "http://www.university.edu/stylesheets/usgs.xsl"
              }
            }
          ],
          "MinScaleDenominator": 1000,
          "MaxScaleDenominator": 250000,
          "Layer": [
            {
              "Name": "ROADS_1M",
              "Title": "Roads at 1:1M scale",
              "Abstract": "Roads at a scale of 1 to 1 million.",
              "KeywordList": [
                "road",
                "transportation",
                "atlas"
              ],
              "Identifier": [
                "123456"
              ],
              "MetadataURL": [
                {
                  "Format": "text/plain",
                  "OnlineResource": "http://www.university.edu/metadata/roads.txt",
                  "type": "FGDC:1998"
                },
                {
                  "Format": "text/xml",
                  "OnlineResource": "http://www.university.edu/metadata/roads.xml",
                  "type": "ISO19115:2003"
                }
              ],
              "Style": [
                {
                  "Name": "ATLAS",
                  "Title": "Road atlas style",
                  "Abstract": "Roads are shown in a style like that used in a commercial road atlas.",
                  "LegendURL": [
                    {
                      "Format": "image/gif",
                      "OnlineResource": "http://www.university.edu/legends/atlas.gif",
                      "size": [
                        72,
                        72
                      ]
                    }
                  ]
                },
                {
                  "Name": "USGS",
                  "Title": "USGS Topo Map Style",
                  "Abstract": "Features are shown in a style like that used in USGS topographic maps.",
                  "LegendURL": [
                    {
                      "Format": "image/gif",
                      "OnlineResource": "http://www.university.edu/legends/usgs.gif",
                      "size": [
                        72,
                        72
                      ]
                    }
                  ],
                  "StyleSheetURL": {
                    "Format": "text/xsl",
                    "OnlineResource": "http://www.university.edu/stylesheets/usgs.xsl"
                  }
                }
              ],
              "queryable": true,
              "opaque": false,
              "noSubsets": false,
              "CRS": [
                "EPSG:26986"
              ],
              "EX_GeographicBoundingBox": [
                -71.63,
                41.75,
                -70.78,
                42.9
              ],
              "BoundingBox": [
                {
                  "crs": "CRS:84",
                  "extent": [
                    -71.63,
                    41.75,
                    -70.78,
                    42.9
                  ],
                  "res": [
                    0.01,
                    0.01
                  ]
                },
                {
                  "crs": "EPSG:26986",
                  "extent": [
                    189000,
                    834000,
                    285000,
                    962000
                  ],
                  "res": [
                    1,
                    1
                  ]
                }
              ],
              "Attribution": {
                "Title": "State College University",
                "OnlineResource": "http://www.university.edu/",
                "LogoURL": {
                  "Format": "image/gif",
                  "OnlineResource": "http://www.university.edu/icons/logo.gif",
                  "size": [
                    100,
                    100
                  ]
                }
              },
              "MinScaleDenominator": 1000,
              "MaxScaleDenominator": 250000
            },
            {
              "Name": "RIVERS_1M",
              "Title": "Rivers at 1:1M scale",
              "Abstract": "Rivers at a scale of 1 to 1 million.",
              "KeywordList": [
                "river",
                "canal",
                "waterway"
              ],
              "queryable": true,
              "opaque": false,
              "noSubsets": false,
              "Style": [
                {
                  "Name": "USGS",
                  "Title": "USGS Topo Map Style",
                  "Abstract": "Features are shown in a style like that used in USGS topographic maps.",
                  "LegendURL": [
                    {
                      "Format": "image/gif",
                      "OnlineResource": "http://www.university.edu/legends/usgs.gif",
                      "size": [
                        72,
                        72
                      ]
                    }
                  ],
                  "StyleSheetURL": {
                    "Format": "text/xsl",
                    "OnlineResource": "http://www.university.edu/stylesheets/usgs.xsl"
                  }
                }
              ],
              "CRS": [
                "EPSG:26986"
              ],
              "EX_GeographicBoundingBox": [
                -71.63,
                41.75,
                -70.78,
                42.9
              ],
              "BoundingBox": [
                {
                  "crs": "CRS:84",
                  "extent": [
                    -71.63,
                    41.75,
                    -70.78,
                    42.9
                  ],
                  "res": [
                    0.01,
                    0.01
                  ]
                },
                {
                  "crs": "EPSG:26986",
                  "extent": [
                    189000,
                    834000,
                    285000,
                    962000
                  ],
                  "res": [
                    1,
                    1
                  ]
                }
              ],
              "Attribution": {
                "Title": "State College University",
                "OnlineResource": "http://www.university.edu/",
                "LogoURL": {
                  "Format": "image/gif",
                  "OnlineResource": "http://www.university.edu/icons/logo.gif",
                  "size": [
                    100,
                    100
                  ]
                }
              },
              "MinScaleDenominator": 1000,
              "MaxScaleDenominator": 250000
            }
          ],
          "queryable": false,
          "opaque": false,
          "noSubsets": false,
          "AuthorityURL": [
            {
              "OnlineResource": "http://gcmd.gsfc.nasa.gov/difguide/whatisadif.html",
              "name": "DIF_ID"
            }
          ]
        },
        {
          "Title": "Weather Forecast Data",
          "CRS": [
            "CRS:84",
            "CRS:84"
          ],
          "EX_GeographicBoundingBox": [
            -180,
            -90,
            180,
            90
          ],
          "Dimension": [
            {
              "name": "time",
              "units": "ISO8601",
              "unitSymbol": null,
              "default": "2000-08-22",
              "values": "1999-01-01/2000-08-22/P1D"
            }
          ],
          "Layer": [
            {
              "Name": "Clouds",
              "Title": "Forecast cloud cover",
              "queryable": false,
              "opaque": false,
              "noSubsets": false,
              "CRS": [
                "CRS:84"
              ],
              "EX_GeographicBoundingBox": [
                -180,
                -90,
                180,
                90
              ],
              "Dimension": [
                {
                  "name": "time",
                  "units": "ISO8601",
                  "unitSymbol": null,
                  "default": "2000-08-22",
                  "values": "1999-01-01/2000-08-22/P1D"
                }
              ]
            },
            {
              "Name": "Temperature",
              "Title": "Forecast temperature",
              "queryable": false,
              "opaque": false,
              "noSubsets": false,
              "CRS": [
                "CRS:84"
              ],
              "EX_GeographicBoundingBox": [
                -180,
                -90,
                180,
                90
              ],
              "Dimension": [
                {
                  "name": "time",
                  "units": "ISO8601",
                  "unitSymbol": null,
                  "default": "2000-08-22",
                  "values": "1999-01-01/2000-08-22/P1D"
                }
              ]
            },
            {
              "Name": "Pressure",
              "Title": "Forecast barometric pressure",
              "Dimension": [
                {
                  "name": "elevation",
                  "units": "EPSG:5030",
                  "unitSymbol": null,
                  "default": null,
                  "values": ""
                },
                {
                  "name": "time",
                  "units": "ISO8601",
                  "unitSymbol": null,
                  "default": "2000-08-22",
                  "values": "1999-01-01/2000-08-22/P1D"
                },
                {
                  "name": "elevation",
                  "units": "CRS:88",
                  "unitSymbol": null,
                  "default": "0",
                  "nearestValue": true,
                  "values": "0,1000,3000,5000,10000"
                }
              ],
              "queryable": false,
              "opaque": false,
              "noSubsets": false,
              "CRS": [
                "CRS:84"
              ],
              "EX_GeographicBoundingBox": [
                -180,
                -90,
                180,
                90
              ]
            }
          ],
          "queryable": true,
          "opaque": false,
          "noSubsets": false,
          "AuthorityURL": [
            {
              "OnlineResource": "http://gcmd.gsfc.nasa.gov/difguide/whatisadif.html",
              "name": "DIF_ID"
            }
          ],
          "BoundingBox": [
            {
              "crs": "CRS:84",
              "extent": [
                -1,
                -1,
                1,
                1
              ],
              "res": [
                0,
                0
              ]
            }
          ]
        },
        {
          "Name": "ozone_image",
          "Title": "Global ozone distribution (1992)",
          "EX_GeographicBoundingBox": [
            -180,
            -90,
            180,
            90
          ],
          "Dimension": [
            {
              "name": "time",
              "units": "ISO8601",
              "unitSymbol": null,
              "default": "1992",
              "values": "1992"
            }
          ],
          "queryable": false,
          "opaque": true,
          "noSubsets": true,
          "fixedWidth": 512,
          "fixedHeight": 256,
          "CRS": [
            "CRS:84"
          ],
          "AuthorityURL": [
            {
              "OnlineResource": "http://gcmd.gsfc.nasa.gov/difguide/whatisadif.html",
              "name": "DIF_ID"
            }
          ],
          "BoundingBox": [
            {
              "crs": "CRS:84",
              "extent": [
                -1,
                -1,
                1,
                1
              ],
              "res": [
                0,
                0
              ]
            }
          ]
        },
        {
          "Name": "population",
          "Title": "World population, annual",
          "EX_GeographicBoundingBox": [
            -180,
            -90,
            180,
            90
          ],
          "Dimension": [
            {
              "name": "time",
              "units": "ISO8601",
              "unitSymbol": null,
              "default": "2000",
              "values": "1990/2000/P1Y"
            }
          ],
          "queryable": false,
          "cascaded": 1,
          "opaque": false,
          "noSubsets": false,
          "CRS": [
            "CRS:84"
          ],
          "AuthorityURL": [
            {
              "OnlineResource": "http://gcmd.gsfc.nasa.gov/difguide/whatisadif.html",
              "name": "DIF_ID"
            }
          ],
          "BoundingBox": [
            {
              "crs": "CRS:84",
              "extent": [
                -1,
                -1,
                1,
                1
              ],
              "res": [
                0,
                0
              ]
            }
          ]
        }
      ]
    }
  }
}